Floods Unfolded: A Data-Driven Exploration of Flood Events in the US
…
EDA on States

We aim to identify the states that are most frequently affected by flooding events. Our analysis will highlight the top five states with the highest number of recorded flood incidents. Additionally, we will quantify the impact by presenting the total property and crop damages incurred in each of these states.

Flood counts for states

[1] "Every row has value in the State column."

# A tibble: 55 × 2
# Groups:   STATE [55]
   STATE                    n
   <chr>                <int>
 1 ALABAMA                336
 2 ALASKA                  25
 3 AMERICAN SAMOA          11
 4 ARIZONA                454
 5 ARKANSAS               460
 6 CALIFORNIA             367
 7 COLORADO               147
 8 CONNECTICUT             86
 9 DELAWARE                38
10 DISTRICT OF COLUMBIA    29
# ℹ 45 more rows
…
It appears that flood occurrences are not evenly distributed across the United States, with some states experiencing a higher frequency of events. Notably, Virginia stands out with a total of 1,040 reported flood incidents for the years 2020 and 2021. On average, Virginia experienced nearly three flood events every day and this high frequency highlights the significant and persistent challenge for government and people.

Missouri had 797 events in total. Kentucky, Texas, and New York also recorded 696, 751, and 611 occurrences respectively.

State vs Property and Crop Damages

Now it’s time to visualize the financial/agricultural damages of flood.

Property Damage

# A tibble: 55 × 3
   STATE                Total_Damage_Property Total_Damage_Crops
   <chr>                                <dbl>              <dbl>
 1 ALABAMA                            4985000                  0
 2 ALASKA                            15429740                  0
 3 AMERICAN SAMOA                      701000              81000
 4 ARIZONA                           87238500                  0
 5 ARKANSAS                           1548000                  0
 6 CALIFORNIA                        22385000              18000
 7 COLORADO                           2106710             425240
 8 CONNECTICUT                        7110510                  0
 9 DELAWARE                           3600000                  0
10 DISTRICT OF COLUMBIA                100000                  0
# ℹ 45 more rows
…
